{
    "help": "https://data.gov.il/api/3/action/help_show?name=datastore_search",
    "success": true,
    "result": {
        "include_total": true,
        "limit": 50,
        "q": "Rav",
        "records_format": "objects",
        "resource_id": "39f455bf-6db0-4926-859d-017f34eacbcb",
        "total_estimation_threshold": null,
        "records": [
            {
                "_id": 15994,
                "semel_yevuan": 541,
                "shem_yevuan": "גיא מאור בע\"מ",
                "sug_degem": "P",
                "tozeret_cd": 488,
                "tozeret_nm": "טויוטה ארה\"ב",
                "degem_cd": 168,
                "degem_nm": "TOYOTA RAV 4",
                "shnat_yitzur": 2021,
                "mehir": 240000,
                "kinuy_mishari": "RAV 4",
                "rank": 0.0706241
            },
            {
                "_id": 20550,
                "semel_yevuan": 541,
                "shem_yevuan": "גיא מאור בע\"מ",
                "sug_degem": "P",
                "tozeret_cd": 488,
                "tozeret_nm": "טויוטה ארה\"ב",
                "degem_cd": 158,
                "degem_nm": "TOYOTA RAV 4",
                "shnat_yitzur": 2021,
                "mehir": 240000,
                "kinuy_mishari": "RAV 4",
                "rank": 0.0706241
            },
            {
                "_id": 1346,
                "semel_yevuan": 128,
                "shem_yevuan": "יוניון מוטורס",
                "sug_degem": "M",
                "tozeret_cd": 413,
                "tozeret_nm": "טויוטה יפן",
                "degem_cd": 103,
                "degem_nm": "AXAH54L-ANXMBW",
                "shnat_yitzur": 2020,
                "mehir": 200900,
                "kinuy_mishari": "RAV 4 HYBRID",
                "rank": 0.0573088
            },
            {
                "_id": 1537,
                "semel_yevuan": 128,
                "shem_yevuan": "יוניון מוטורס",
                "sug_degem": "M",
                "tozeret_cd": 413,
                "tozeret_nm": "טויוטה יפן",
                "degem_cd": 125,
                "degem_nm": "AXAL54L-ANXMBW",
                "shnat_yitzur": 2020,
                "mehir": 201900,
                "kinuy_mishari": "RAV 4 HYBRID",
                "rank": 0.0573088
            },
            {
                "_id": 1661,
                "semel_yevuan": 128,
                "shem_yevuan": "יוניון מוטורס",
                "sug_degem": "M",
                "tozeret_cd": 413,
                "tozeret_nm": "טויוטה יפן",
                "degem_cd": 106,
                "degem_nm": "AXAH54L-ANXMBW",
                "shnat_yitzur": 2019,
                "mehir": 184900,
                "kinuy_mishari": "RAV 4 HYBRID",
                "rank": 0.0573088
            },
            {
                "_id": 1662,
                "semel_yevuan": 128,
                "shem_yevuan": "יוניון מוטורס",
                "sug_degem": "M",
                "tozeret_cd": 413,
                "tozeret_nm": "טויוטה יפן",
                "degem_cd": 106,
                "degem_nm": "AXAH54L-ANXMBW",
                "shnat_yitzur": 2020,
                "mehir": 200900,
                "kinuy_mishari": "RAV 4 HYBRID",
                "rank": 0.0573088
            },
            {
                "_id": 2049,
                "semel_yevuan": 128,
                "shem_yevuan": "יוניון מוטורס",
                "sug_degem": "M",
                "tozeret_cd": 413,
                "tozeret_nm": "טויוטה יפן",
                "degem_cd": 113,
                "degem_nm": "AXAL54L-ANXMBW",
                "shnat_yitzur": 2021,
                "mehir": 202900,
                "kinuy_mishari": "RAV 4 HYBRID",
                "rank": 0.0573088
            },
            {
                "_id": 2457,
                "semel_yevuan": 128,
                "shem_yevuan": "יוניון מוטורס",
                "sug_degem": "P",
                "tozeret_cd": 413,
                "tozeret_nm": "טויוטה יפן",
                "degem_cd": 165,
                "degem_nm": "MXAA52L-ANXMBW",
                "shnat_yitzur": 2020,
                "mehir": 199900,
                "kinuy_mishari": "RAV 4",
                "rank": 0.0573088
            },
            {
                "_id": 2450,
                "semel_yevuan": 128,
                "shem_yevuan": "יוניון מוטורס",
                "sug_degem": "P",
                "tozeret_cd": 413,
                "tozeret_nm": "טויוטה יפן",
                "degem_cd": 138,
                "degem_nm": "MXAA52L-ANXMBW",
                "shnat_yitzur": 2019,
                "mehir": 186900,
                "kinuy_mishari": "RAV 4",
                "rank": 0.0573088
            },
            {
                "_id": 2451,
                "semel_yevuan": 128,
                "shem_yevuan": "יוניון מוטורס",
                "sug_degem": "P",
                "tozeret_cd": 413,
                "tozeret_nm": "טויוטה יפן",
                "degem_cd": 138,
                "degem_nm": "MXAA52L-ANXMBW",
                "shnat_yitzur": 2018,
                "mehir": 184900,
                "kinuy_mishari": "RAV 4",
                "rank": 0.0573088
            },
            {
                "_id": 2452,
                "semel_yevuan": 128,
                "shem_yevuan": "יוניון מוטורס",
                "sug_degem": "P",
                "tozeret_cd": 413,
                "tozeret_nm": "טויוטה יפן",
                "degem_cd": 142,
                "degem_nm": "MXAA54L-ANXMBW",
                "shnat_yitzur": 2020,
                "mehir": 186900,
                "kinuy_mishari": "RAV 4",
                "rank": 0.0573088
            },
            {
                "_id": 2453,
                "semel_yevuan": 128,
                "shem_yevuan": "יוניון מוטורס",
                "sug_degem": "P",
                "tozeret_cd": 413,
                "tozeret_nm": "טויוטה יפן",
                "degem_cd": 142,
                "degem_nm": "MXAA54L-ANXMBW",
                "shnat_yitzur": 2018,
                "mehir": 174900,
                "kinuy_mishari": "RAV 4",
                "rank": 0.0573088
            },
            {
                "_id": 2454,
                "semel_yevuan": 128,
                "shem_yevuan": "יוניון מוטורס",
                "sug_degem": "P",
                "tozeret_cd": 413,
                "tozeret_nm": "טויוטה יפן",
                "degem_cd": 142,
                "degem_nm": "MXAA54L-ANXMBW",
                "shnat_yitzur": 2019,
                "mehir": 176900,
                "kinuy_mishari": "RAV 4",
                "rank": 0.0573088
            },
            {
                "_id": 2455,
                "semel_yevuan": 128,
                "shem_yevuan": "יוניון מוטורס",
                "sug_degem": "P",
                "tozeret_cd": 413,
                "tozeret_nm": "טויוטה יפן",
                "degem_cd": 152,
                "degem_nm": "AXAH52L-ANXMBW",
                "shnat_yitzur": 2019,
                "mehir": 176900,
                "kinuy_mishari": "RAV 4 HYBRID",
                "rank": 0.0573088
            },
            {
                "_id": 5557,
                "semel_yevuan": 128,
                "shem_yevuan": "יוניון מוטורס",
                "sug_degem": "P",
                "tozeret_cd": 413,
                "tozeret_nm": "טויוטה יפן",
                "degem_cd": 125,
                "degem_nm": "AVA42L-ANXMBW",
                "shnat_yitzur": 2019,
                "mehir": 189900,
                "kinuy_mishari": "RAV 4 HYBRID",
                "rank": 0.0573088
            },
            {
                "_id": 5556,
                "semel_yevuan": 128,
                "shem_yevuan": "יוניון מוטורס",
                "sug_degem": "P",
                "tozeret_cd": 413,
                "tozeret_nm": "טויוטה יפן",
                "degem_cd": 125,
                "degem_nm": "AVA42L-ANXMBW",
                "shnat_yitzur": 2018,
                "mehir": 189900,
                "kinuy_mishari": "RAV 4 HYBRID",
                "rank": 0.0573088
            },
            {
                "_id": 2458,
                "semel_yevuan": 128,
                "shem_yevuan": "יוניון מוטורס",
                "sug_degem": "P",
                "tozeret_cd": 413,
                "tozeret_nm": "טויוטה יפן",
                "degem_cd": 165,
                "degem_nm": "MXAA52L-ANXMBW",
                "shnat_yitzur": 2019,
                "mehir": 199900,
                "kinuy_mishari": "RAV 4",
                "rank": 0.0573088
            },
            {
                "_id": 2462,
                "semel_yevuan": 128,
                "shem_yevuan": "יוניון מוטורס",
                "sug_degem": "P",
                "tozeret_cd": 413,
                "tozeret_nm": "טויוטה יפן",
                "degem_cd": 192,
                "degem_nm": "AXAL54L-ANXGBW",
                "shnat_yitzur": 2020,
                "mehir": 250000,
                "kinuy_mishari": "RAV 4 HYBRID",
                "rank": 0.0573088
            },
            {
                "_id": 2463,
                "semel_yevuan": 128,
                "shem_yevuan": "יוניון מוטורס",
                "sug_degem": "P",
                "tozeret_cd": 413,
                "tozeret_nm": "טויוטה יפן",
                "degem_cd": 192,
                "degem_nm": "AXAL54L-ANXGBW",
                "shnat_yitzur": 2021,
                "mehir": 250000,
                "kinuy_mishari": "RAV 4 HYBRID",
                "rank": 0.0573088
            },
            {
                "_id": 3016,
                "semel_yevuan": 631,
                "shem_yevuan": "בלאק פוקס ישראל בע\"מ",
                "sug_degem": "P",
                "tozeret_cd": 413,
                "tozeret_nm": "טויוטה יפן",
                "degem_cd": 225,
                "degem_nm": "AXAL52L-ANXXBW",
                "shnat_yitzur": 2021,
                "mehir": 210000,
                "kinuy_mishari": "RAV 4 HYBRID",
                "rank": 0.0573088
            },
            {
                "_id": 3291,
                "semel_yevuan": 128,
                "shem_yevuan": "יוניון מוטורס",
                "sug_degem": "P",
                "tozeret_cd": 413,
                "tozeret_nm": "טויוטה יפן",
                "degem_cd": 104,
                "degem_nm": "ZSA44L-ANXXPW",
                "shnat_yitzur": 2016,
                "mehir": 169900,
                "kinuy_mishari": "RAV 4",
                "rank": 0.0573088
            },
            {
                "_id": 3292,
                "semel_yevuan": 128,
                "shem_yevuan": "יוניון מוטורס",
                "sug_degem": "P",
                "tozeret_cd": 413,
                "tozeret_nm": "טויוטה יפן",
                "degem_cd": 104,
                "degem_nm": "ZSA44L-ANXXPW",
                "shnat_yitzur": 2017,
                "mehir": 174900,
                "kinuy_mishari": "RAV 4",
                "rank": 0.0573088
            },
            {
                "_id": 3293,
                "semel_yevuan": 128,
                "shem_yevuan": "יוניון מוטורס",
                "sug_degem": "P",
                "tozeret_cd": 413,
                "tozeret_nm": "טויוטה יפן",
                "degem_cd": 104,
                "degem_nm": "ZSA44L-ANXXPW",
                "shnat_yitzur": 2018,
                "mehir": 169900,
                "kinuy_mishari": "RAV 4",
                "rank": 0.0573088
            },
            {
                "_id": 3300,
                "semel_yevuan": 128,
                "shem_yevuan": "יוניון מוטורס",
                "sug_degem": "P",
                "tozeret_cd": 413,
                "tozeret_nm": "טויוטה יפן",
                "degem_cd": 1211,
                "degem_nm": "ZSA44L-ANXMPW",
                "shnat_yitzur": 2016,
                "mehir": 182900,
                "kinuy_mishari": "RAV 4",
                "rank": 0.0573088
            },
            {
                "_id": 3301,
                "semel_yevuan": 128,
                "shem_yevuan": "יוניון מוטורס",
                "sug_degem": "P",
                "tozeret_cd": 413,
                "tozeret_nm": "טויוטה יפן",
                "degem_cd": 146,
                "degem_nm": "AXAH52L-ANXMBW",
                "shnat_yitzur": 2019,
                "mehir": 196900,
                "kinuy_mishari": "RAV 4 HYBRID",
                "rank": 0.0573088
            },
            {
                "_id": 5532,
                "semel_yevuan": 128,
                "shem_yevuan": "יוניון מוטורס",
                "sug_degem": "P",
                "tozeret_cd": 413,
                "tozeret_nm": "טויוטה יפן",
                "degem_cd": 144,
                "degem_nm": "MXAA54L-ANXMBW",
                "shnat_yitzur": 2018,
                "mehir": 179900,
                "kinuy_mishari": "RAV 4",
                "rank": 0.0573088
            },
            {
                "_id": 5533,
                "semel_yevuan": 128,
                "shem_yevuan": "יוניון מוטורס",
                "sug_degem": "P",
                "tozeret_cd": 413,
                "tozeret_nm": "טויוטה יפן",
                "degem_cd": 144,
                "degem_nm": "MXAA54L-ANXMBW",
                "shnat_yitzur": 2019,
                "mehir": 181900,
                "kinuy_mishari": "RAV 4",
                "rank": 0.0573088
            },
            {
                "_id": 5534,
                "semel_yevuan": 128,
                "shem_yevuan": "יוניון מוטורס",
                "sug_degem": "P",
                "tozeret_cd": 413,
                "tozeret_nm": "טויוטה יפן",
                "degem_cd": 145,
                "degem_nm": "AXAH52L-ANXMBW",
                "shnat_yitzur": 2019,
                "mehir": 191900,
                "kinuy_mishari": "RAV 4 HYBRID",
                "rank": 0.0573088
            },
            {
                "_id": 5535,
                "semel_yevuan": 128,
                "shem_yevuan": "יוניון מוטורס",
                "sug_degem": "P",
                "tozeret_cd": 413,
                "tozeret_nm": "טויוטה יפן",
                "degem_cd": 154,
                "degem_nm": "AXAH52L-ANXMBW",
                "shnat_yitzur": 2019,
                "mehir": 196900,
                "kinuy_mishari": "RAV 4 HYBRID",
                "rank": 0.0573088
            },
            {
                "_id": 5536,
                "semel_yevuan": 128,
                "shem_yevuan": "יוניון מוטורס",
                "sug_degem": "P",
                "tozeret_cd": 413,
                "tozeret_nm": "טויוטה יפן",
                "degem_cd": 154,
                "degem_nm": "AXAH52L-ANXMBW",
                "shnat_yitzur": 2020,
                "mehir": 206900,
                "kinuy_mishari": "RAV 4 HYBRID",
                "rank": 0.0573088
            },
            {
                "_id": 2456,
                "semel_yevuan": 128,
                "shem_yevuan": "יוניון מוטורס",
                "sug_degem": "P",
                "tozeret_cd": 413,
                "tozeret_nm": "טויוטה יפן",
                "degem_cd": 152,
                "degem_nm": "AXAH52L-ANXMBW",
                "shnat_yitzur": 2020,
                "mehir": 190900,
                "kinuy_mishari": "RAV 4 HYBRID",
                "rank": 0.0573088
            },
            {
                "_id": 1993,
                "semel_yevuan": 128,
                "shem_yevuan": "יוניון מוטורס",
                "sug_degem": "M",
                "tozeret_cd": 413,
                "tozeret_nm": "טויוטה יפן",
                "degem_cd": 93,
                "degem_nm": "ZSA44L-ANXMPW",
                "shnat_yitzur": 2016,
                "mehir": 182900,
                "kinuy_mishari": "RAV 4",
                "rank": 0.0573088
            },
            {
                "_id": 5558,
                "semel_yevuan": 128,
                "shem_yevuan": "יוניון מוטורס",
                "sug_degem": "P",
                "tozeret_cd": 413,
                "tozeret_nm": "טויוטה יפן",
                "degem_cd": 127,
                "degem_nm": "AVA42L-ANXMBW",
                "shnat_yitzur": 2018,
                "mehir": 189900,
                "kinuy_mishari": "RAV 4 HYBRID",
                "rank": 0.0573088
            },
            {
                "_id": 5559,
                "semel_yevuan": 128,
                "shem_yevuan": "יוניון מוטורס",
                "sug_degem": "P",
                "tozeret_cd": 413,
                "tozeret_nm": "טויוטה יפן",
                "degem_cd": 127,
                "degem_nm": "AVA42L-ANXMBW",
                "shnat_yitzur": 2019,
                "mehir": 189900,
                "kinuy_mishari": "RAV 4 HYBRID",
                "rank": 0.0573088
            },
            {
                "_id": 5560,
                "semel_yevuan": 128,
                "shem_yevuan": "יוניון מוטורס",
                "sug_degem": "P",
                "tozeret_cd": 413,
                "tozeret_nm": "טויוטה יפן",
                "degem_cd": 128,
                "degem_nm": "AVA42L-ANXGBW",
                "shnat_yitzur": 2018,
                "mehir": 204900,
                "kinuy_mishari": "RAV 4 HYBRID",
                "rank": 0.0573088
            },
            {
                "_id": 5561,
                "semel_yevuan": 128,
                "shem_yevuan": "יוניון מוטורס",
                "sug_degem": "P",
                "tozeret_cd": 413,
                "tozeret_nm": "טויוטה יפן",
                "degem_cd": 128,
                "degem_nm": "AVA42L-ANXGBW",
                "shnat_yitzur": 2019,
                "mehir": 204900,
                "kinuy_mishari": "RAV 4 HYBRID",
                "rank": 0.0573088
            },
            {
                "_id": 5565,
                "semel_yevuan": 128,
                "shem_yevuan": "יוניון מוטורס",
                "sug_degem": "P",
                "tozeret_cd": 413,
                "tozeret_nm": "טויוטה יפן",
                "degem_cd": 139,
                "degem_nm": "AXAH52L-ANXMBW",
                "shnat_yitzur": 2018,
                "mehir": 174900,
                "kinuy_mishari": "RAV 4 HYBRID",
                "rank": 0.0573088
            },
            {
                "_id": 5566,
                "semel_yevuan": 128,
                "shem_yevuan": "יוניון מוטורס",
                "sug_degem": "P",
                "tozeret_cd": 413,
                "tozeret_nm": "טויוטה יפן",
                "degem_cd": 139,
                "degem_nm": "AXAH52L-ANXMBW",
                "shnat_yitzur": 2020,
                "mehir": 186900,
                "kinuy_mishari": "RAV 4 HYBRID",
                "rank": 0.0573088
            },
            {
                "_id": 5567,
                "semel_yevuan": 128,
                "shem_yevuan": "יוניון מוטורס",
                "sug_degem": "P",
                "tozeret_cd": 413,
                "tozeret_nm": "טויוטה יפן",
                "degem_cd": 139,
                "degem_nm": "AXAH52L-ANXMBW",
                "shnat_yitzur": 2019,
                "mehir": 176900,
                "kinuy_mishari": "RAV 4 HYBRID",
                "rank": 0.0573088
            },
            {
                "_id": 6088,
                "semel_yevuan": 128,
                "shem_yevuan": "יוניון מוטורס",
                "sug_degem": "P",
                "tozeret_cd": 413,
                "tozeret_nm": "טויוטה יפן",
                "degem_cd": 143,
                "degem_nm": "AXAH52L-ANXXBW",
                "shnat_yitzur": 2019,
                "mehir": 169900,
                "kinuy_mishari": "RAV 4 HYBRID",
                "rank": 0.0573088
            },
            {
                "_id": 6184,
                "semel_yevuan": 128,
                "shem_yevuan": "יוניון מוטורס",
                "sug_degem": "P",
                "tozeret_cd": 413,
                "tozeret_nm": "טויוטה יפן",
                "degem_cd": 143,
                "degem_nm": "AXAH52L-ANXXBW",
                "shnat_yitzur": 2018,
                "mehir": 169900,
                "kinuy_mishari": "RAV 4 HYBRID",
                "rank": 0.0573088
            },
            {
                "_id": 6191,
                "semel_yevuan": 128,
                "shem_yevuan": "יוניון מוטורס",
                "sug_degem": "P",
                "tozeret_cd": 413,
                "tozeret_nm": "טויוטה יפן",
                "degem_cd": 105,
                "degem_nm": "ZSA44L-ANXMPW",
                "shnat_yitzur": 2017,
                "mehir": 184900,
                "kinuy_mishari": "RAV 4",
                "rank": 0.0573088
            },
            {
                "_id": 6192,
                "semel_yevuan": 128,
                "shem_yevuan": "יוניון מוטורס",
                "sug_degem": "P",
                "tozeret_cd": 413,
                "tozeret_nm": "טויוטה יפן",
                "degem_cd": 105,
                "degem_nm": "ZSA44L-ANXMPW",
                "shnat_yitzur": 2018,
                "mehir": 179900,
                "kinuy_mishari": "RAV 4",
                "rank": 0.0573088
            },
            {
                "_id": 6193,
                "semel_yevuan": 128,
                "shem_yevuan": "יוניון מוטורס",
                "sug_degem": "P",
                "tozeret_cd": 413,
                "tozeret_nm": "טויוטה יפן",
                "degem_cd": 105,
                "degem_nm": "ZSA44L-ANXMPW",
                "shnat_yitzur": 2016,
                "mehir": 179900,
                "kinuy_mishari": "RAV 4",
                "rank": 0.0573088
            },
            {
                "_id": 6204,
                "semel_yevuan": 128,
                "shem_yevuan": "יוניון מוטורס",
                "sug_degem": "P",
                "tozeret_cd": 413,
                "tozeret_nm": "טויוטה יפן",
                "degem_cd": 187,
                "degem_nm": "AXAL52L-ANXMBW",
                "shnat_yitzur": 2020,
                "mehir": 211900,
                "kinuy_mishari": "RAV 4 HYBRID",
                "rank": 0.0573088
            },
            {
                "_id": 6205,
                "semel_yevuan": 128,
                "shem_yevuan": "יוניון מוטורס",
                "sug_degem": "P",
                "tozeret_cd": 413,
                "tozeret_nm": "טויוטה יפן",
                "degem_cd": 187,
                "degem_nm": "AXAL52L-ANXMBW",
                "shnat_yitzur": 2021,
                "mehir": 212900,
                "kinuy_mishari": "RAV 4 HYBRID",
                "rank": 0.0573088
            },
            {
                "_id": 6206,
                "semel_yevuan": 128,
                "shem_yevuan": "יוניון מוטורס",
                "sug_degem": "P",
                "tozeret_cd": 413,
                "tozeret_nm": "טויוטה יפן",
                "degem_cd": 189,
                "degem_nm": "AXAL54L-ANXMBW",
                "shnat_yitzur": 2020,
                "mehir": 201900,
                "kinuy_mishari": "RAV 4 HYBRID",
                "rank": 0.0573088
            },
            {
                "_id": 6207,
                "semel_yevuan": 128,
                "shem_yevuan": "יוניון מוטורס",
                "sug_degem": "P",
                "tozeret_cd": 413,
                "tozeret_nm": "טויוטה יפן",
                "degem_cd": 189,
                "degem_nm": "AXAL54L-ANXMBW",
                "shnat_yitzur": 2021,
                "mehir": 202900,
                "kinuy_mishari": "RAV 4 HYBRID",
                "rank": 0.0573088
            },
            {
                "_id": 6893,
                "semel_yevuan": 128,
                "shem_yevuan": "יוניון מוטורס",
                "sug_degem": "M",
                "tozeret_cd": 413,
                "tozeret_nm": "טויוטה יפן",
                "degem_cd": 91,
                "degem_nm": "MXAA54L-ANXMBW",
                "shnat_yitzur": 2018,
                "mehir": 179900,
                "kinuy_mishari": "RAV 4",
                "rank": 0.0573088
            },
            {
                "_id": 1536,
                "semel_yevuan": 128,
                "shem_yevuan": "יוניון מוטורס",
                "sug_degem": "M",
                "tozeret_cd": 413,
                "tozeret_nm": "טויוטה יפן",
                "degem_cd": 125,
                "degem_nm": "AXAL54L-ANXMBW",
                "shnat_yitzur": 2021,
                "mehir": 202900,
                "kinuy_mishari": "RAV 4 HYBRID",
                "rank": 0.0573088
            }
        ],
        "fields": [
            {
                "id": "_id",
                "type": "int"
            },
            {
                "id": "semel_yevuan",
                "type": "numeric",
                "info": {
                    "label": "",
                    "notes": "\u05e1\u05de\u05dc \u05d9\u05d1\u05d5\u05d0\u05df",
                    "type_override": ""
                }
            },
            {
                "id": "shem_yevuan",
                "type": "text",
                "info": {
                    "label": "",
                    "notes": "\u05e9\u05dd \u05d9\u05d1\u05d5\u05d0\u05df",
                    "type_override": ""
                }
            },
            {
                "id": "sug_degem",
                "type": "text",
                "info": {
                    "label": "",
                    "notes": "\u05e1\u05d5\u05d2 \u05d3\u05d2\u05dd",
                    "type_override": ""
                }
            },
            {
                "id": "tozeret_cd",
                "type": "numeric",
                "info": {
                    "label": "",
                    "notes": "\u05e7\u05d5\u05d3 \u05ea\u05d5\u05e6\u05e8",
                    "type_override": ""
                }
            },
            {
                "id": "tozeret_nm",
                "type": "text",
                "info": {
                    "label": "",
                    "notes": "\u05e9\u05dd \u05ea\u05d5\u05e6\u05e8",
                    "type_override": ""
                }
            },
            {
                "id": "degem_cd",
                "type": "numeric",
                "info": {
                    "label": "",
                    "notes": "\u05e7\u05d5\u05d3 \u05d3\u05d2\u05dd",
                    "type_override": ""
                }
            },
            {
                "id": "degem_nm",
                "type": "text",
                "info": {
                    "label": "",
                    "notes": "\u05e9\u05dd \u05d3\u05d2\u05dd",
                    "type_override": ""
                }
            },
            {
                "id": "shnat_yitzur",
                "type": "numeric",
                "info": {
                    "label": "",
                    "notes": "\u05e9\u05e0\u05ea \u05d9\u05d9\u05e6\u05d5\u05e8",
                    "type_override": ""
                }
            },
            {
                "id": "mehir",
                "type": "numeric",
                "info": {
                    "label": "",
                    "notes": "\u05de\u05d7\u05d9\u05e8 - \u05de\u05ea\u05e2\u05d3\u05db\u05df \u05db\u05dc \u05e9\u05e0\u05d4",
                    "type_override": ""
                }
            },
            {
                "id": "kinuy_mishari",
                "type": "text",
                "info": {
                    "label": "",
                    "notes": "\u05db\u05d9\u05e0\u05d5\u05d9 \u05de\u05e1\u05d7\u05e8\u05d9",
                    "type_override": ""
                }
            },
            {
                "id": "rank",
                "type": "float"
            }
        ],
        "_links": {
            "start": "/api/3/action/datastore_search?resource_id=39f455bf-6db0-4926-859d-017f34eacbcb&q=Rav&limit=50",
            "next": "/api/3/action/datastore_search?resource_id=39f455bf-6db0-4926-859d-017f34eacbcb&q=Rav&limit=50&offset=50"
        },
        "total": 122,
        "total_was_estimated": false
    }
}